<?xml version="1.0" encoding="UTF-8" standalone="no"?>
<!-- Created with Inkscape (http://www.inkscape.org/) -->

<svg
   width="200mm"
   height="200mm"
   viewBox="0 0 200 200"
   version="1.1"
   id="svg5"
   sodipodi:docname="squote-logo.svg"
   inkscape:version="1.1 (c68e22c387, 2021-05-23)"
   xmlns:inkscape="http://www.inkscape.org/namespaces/inkscape"
   xmlns:sodipodi="http://sodipodi.sourceforge.net/DTD/sodipodi-0.dtd"
   xmlns:xlink="http://www.w3.org/1999/xlink"
   xmlns="http://www.w3.org/2000/svg"
   xmlns:svg="http://www.w3.org/2000/svg">
  <sodipodi:namedview
     id="namedview7"
     pagecolor="#505050"
     bordercolor="#eeeeee"
     borderopacity="1"
     inkscape:pageshadow="0"
     inkscape:pageopacity="0"
     inkscape:pagecheckerboard="0"
     inkscape:document-units="mm"
     showgrid="false"
     inkscape:zoom="0.57370932"
     inkscape:cx="397.4138"
     inkscape:cy="561.25984"
     inkscape:window-width="1920"
     inkscape:window-height="1019"
     inkscape:window-x="0"
     inkscape:window-y="0"
     inkscape:window-maximized="1"
     inkscape:current-layer="layer1" />
  <defs
     id="defs2">
    <linearGradient
       inkscape:collect="always"
       id="linearGradient11121">
      <stop
         style="stop-color:#000000;stop-opacity:1;"
         offset="0"
         id="stop11117" />
      <stop
         style="stop-color:#333333;stop-opacity:1"
         offset="1"
         id="stop11119" />
    </linearGradient>
    <mask
       maskUnits="userSpaceOnUse"
       id="mask11333">
      <text
         xml:space="preserve"
         style="font-size:47.2448px;line-height:1.25;font-family:monospace;-inkscape-font-specification:monospace;fill:#ffffff;stroke-width:1.18112"
         x="0.82723886"
         y="111.62667"
         id="text11337"><tspan
           sodipodi:role="line"
           id="tspan11335"
           style="fill:#ffffff;stroke-width:1.18112"
           x="0.82723886"
           y="111.62667">&gt;squote</tspan></text>
    </mask>
    <filter
       style="color-interpolation-filters:sRGB;"
       inkscape:label="Invert"
       id="filter991"
       x="-0.01263207"
       y="-0.052724708"
       width="1.0252641"
       height="1.1054494">
      <feColorMatrix
         values="-1 0 0 0 1 0 -1 0 0 1 0 0 -1 0 1 -0.21 -0.72 -0.07 2 0 "
         result="fbSourceGraphic"
         id="feColorMatrix989" />
      <feColorMatrix
         result="fbSourceGraphicAlpha"
         in="fbSourceGraphic"
         values="0 0 0 -1 0 0 0 0 -1 0 0 0 0 -1 0 0 0 0 1 0"
         id="feColorMatrix1117" />
      <feColorMatrix
         id="feColorMatrix1119"
         values="-1 0 0 0 1 0 -1 0 0 1 0 0 -1 0 1 -0.21 -0.72 -0.07 2 0 "
         result="color2"
         in="fbSourceGraphic" />
    </filter>
    <mask
       maskUnits="userSpaceOnUse"
       id="mask11333-7">
      <text
         xml:space="preserve"
         style="font-size:47.2448px;line-height:1.25;font-family:monospace;-inkscape-font-specification:monospace;fill:#ffffff;stroke-width:1.18112"
         x="0.82723886"
         y="111.62667"
         id="text11337-5"><tspan
           sodipodi:role="line"
           id="tspan11335-3"
           style="fill:#ffffff;stroke-width:1.18112"
           x="0.82723886"
           y="111.62667">&gt;squote</tspan></text>
    </mask>
    <filter
       style="color-interpolation-filters:sRGB"
       inkscape:label="Invert"
       id="filter991-5"
       x="-0.01263207"
       y="-0.052724708"
       width="1.0252641"
       height="1.1054494">
      <feColorMatrix
         values="-1 0 0 0 1 0 -1 0 0 1 0 0 -1 0 1 -0.21 -0.72 -0.07 2 0 "
         result="color2"
         id="feColorMatrix989-6" />
    </filter>
    <linearGradient
       inkscape:collect="always"
       xlink:href="#linearGradient11121"
       id="linearGradient1096"
       gradientUnits="userSpaceOnUse"
       x1="95.10759"
       y1="88.018745"
       x2="94.979683"
       y2="122.68832" />
  </defs>
  <g
     inkscape:label="Layer 1"
     inkscape:groupmode="layer"
     id="layer1">
    <rect
       style="fill:#000000;fill-opacity:1;stroke:#000000;stroke-width:5;stroke-linejoin:round;stroke-miterlimit:4;stroke-dasharray:none;stroke-opacity:1;filter:url(#filter991)"
       id="rect10004"
       width="197.90897"
       height="47.4161"
       x="0.64347428"
       y="75.756821"
       mask="url(#mask11333)"
       transform="translate(1.5875,1.5875)" />
    <rect
       style="fill:url(#linearGradient1096);fill-opacity:1;stroke:#000000;stroke-width:5;stroke-linejoin:round;stroke-miterlimit:4;stroke-dasharray:none;stroke-opacity:1;filter:url(#filter991-5)"
       id="rect10004-2"
       width="197.90897"
       height="47.4161"
       x="0.64347428"
       y="75.756821"
       mask="url(#mask11333-7)"
       transform="translate(2.0451844e-4,-2.0697713e-5)" />
  </g>
</svg>
